Module 3 | Data importation and manipulation with tidyverse
…
Apresentar os dados dos hospitais

Quartis

# este código cria uma nova variável quartis estadia que divide as observações de cada hospital em quartis
# os dois comandos finais sao apenas para visualização
quartis_estadia <- inpatient_hospital_lite |> 
  mutate(
    quartis_estadia= ntile(length_patient, 4),.by = instituicao) |> 
  filter(instituicao=="Centro Hospitalar de Setúbal, EPE") |> 
  select(instituicao, length_patient, quartis_estadia) |> 
  arrange(length_patient)

quartis_estadia
## # A tibble: 170 × 3
##    instituicao                       length_patient quartis_estadia
##    <chr>                                      <dbl>           <int>
##  1 Centro Hospitalar de Setúbal, EPE            5.3               1
##  2 Centro Hospitalar de Setúbal, EPE            5.9               1
##  3 Centro Hospitalar de Setúbal, EPE            5.9               1
##  4 Centro Hospitalar de Setúbal, EPE            5.9               1
##  5 Centro Hospitalar de Setúbal, EPE            6                 1
##  6 Centro Hospitalar de Setúbal, EPE            6                 1
##  7 Centro Hospitalar de Setúbal, EPE            6.1               1
##  8 Centro Hospitalar de Setúbal, EPE            6.1               1
##  9 Centro Hospitalar de Setúbal, EPE            6.1               1
## 10 Centro Hospitalar de Setúbal, EPE            6.1               1
## # ℹ 160 more rows
…
Joins_by Inequalities Variants

Operações de grupos/sets

Por vezes queremos confirmar se os dados esperados se encontram num dataset para validação do mesmo.

Saber todos os hospitais estão a reportar dados para o portal da transparência

# para este exemplo vamos remover os dados dos seguitnes hospti
inpatient_hospital_lite_diff <- inpatient_hospital_lite |> 
  filter(instituicao!=c("Centro Hospitalar e Universitário de Coimbra, EPE"))

#Vamos ficar com apenas os dados que estao no lite e não no lite diff
dplyr::setdiff(inpatient_hospital_lite, inpatient_hospital_lite_diff)
## # A tibble: 170 × 24
##    periodo    instituicao                   tipo_de_especialidade doentes_saidos
##    <date>     <chr>                         <chr>                          <dbl>
##  1 2015-04-01 Centro Hospitalar e Universi… Especialidade Cirurg…          11336
##  2 2016-11-01 Centro Hospitalar e Universi… Especialidade Cirurg…          30800
##  3 2017-02-01 Centro Hospitalar e Universi… Especialidade Cirurg…           5445
##  4 2017-08-01 Centro Hospitalar e Universi… Especialidade Cirurg…          21843
##  5 2017-09-01 Centro Hospitalar e Universi… Especialidade Cirurg…          24362
##  6 2017-12-01 Centro Hospitalar e Universi… Especialidade Cirurg…          32885
##  7 2018-02-01 Centro Hospitalar e Universi… Especialidade Cirurg…           5471
##  8 2018-06-01 Centro Hospitalar e Universi… Especialidade Cirurg…          16446
##  9 2019-02-01 Centro Hospitalar e Universi… Especialidade Cirurg…           5112
## 10 2019-09-01 Centro Hospitalar e Universi… Especialidade Cirurg…          23019
## # ℹ 160 more rows
## # ℹ 20 more variables: dias_de_internamento <dbl>, length_patient <dbl>,
## #   new_var <dbl>, fonte <chr>, multiplicacao <dbl>, eriodo <date>, year <int>,
## #   month <dbl>, week <int>, weekday <ord>, doentes_saidos_lag <dbl>,
## #   dias_de_internamento_lag <dbl>, doentes_saidos_var <dbl>,
## #   dias_de_internamento_var <dbl>, cat1 <chr>, cat2 <chr>, instituicao1 <chr>,
## #   instituicao2 <chr>, length_stay_var <dbl>, tipo_instituicao <chr>
…
